pages,,,,,,,,,,,,,,
,uid,pid,title,doktype,,,,,,,,,,
,1,0,Calendar storage,254,,,,,,,,,,
,2,0,Calendar leftover 1,254,,,,,,,,,,
,3,0,Calendar leftover 2,254,,,,,,,,,,
,4,0,Calendar leftover 3,254,,,,,,,,,,
,5,0,Calendar leftover 4,254,,,,,,,,,,
,6,0,Calendar leftover 5,254,,,,,,,,,,
,,,,,,,,,,,,,,
tx_calendar_entry,,,,,,,,,,,,,
,uid,pid,title,teaser,description,start,end,all_day,recurrence,tx_cal_event_uid,,,
,1,1,Regular Event,,,2019-07-16 10:23:00,2019-07-16 15:42:00,0,0,1,,,
,2,2,Event on a non existing page,,,2019-07-16 10:23:00,2019-07-16 15:42:00,0,0,2,,,
,3,3,Another event on a non existing page,,,2019-07-16 10:23:00,2019-07-16 15:42:00,0,0,3,,,
,4,1,daily entry,,,2019-07-16 10:23:00,2019-07-16 15:42:00,0,0,4,,,
,5,1,daily entry with until date,,,2019-07-16 10:23:00,2019-07-16 15:42:00,0,0,5,,,
,6,1,daily entry with until amount,,,2019-07-16 10:23:00,2019-07-16 15:42:00,0,0,6,,,
,7,1,weekly entry,,,2019-07-16 10:23:00,2019-07-16 15:42:00,0,0,7,,,
,8,1,monthly entry by_day_index by_day_day,,,2019-07-16 10:23:00,2019-07-16 15:42:00,0,0,8,,,
,9,1,monthly entry many by_day_index by_day_day,,,2019-07-16 10:23:00,2019-07-16 15:42:00,0,0,9,,,
,10,1,monthly entry bymonthday,,,2019-07-16 10:23:00,2019-07-16 15:42:00,0,0,10,,,
,11,1,Daily entry with deviation,,,2019-07-16 10:23:00,2019-07-16 15:42:00,0,0,11,,,
,12,1,Daily entry with exception,,,2019-07-16 10:23:00,2019-07-16 15:42:00,0,0,12,,,
,13,1,Daily entry with exception and deviation,,,2019-07-16 10:23:00,2019-07-16 15:42:00,0,0,13,,,
,14,1,Daily entry with exception group,,,2019-07-16 10:23:00,2019-07-16 15:42:00,0,0,14,,,
,15,1,Daily entry with exception and exception group,,,2019-07-16 10:23:00,2019-07-16 15:42:00,0,0,15,,,
,,,,,,,,,,,,,,
tx_calendar_recurrence,,,,,,,,,,,,,,
,uid,pid,entry,frequency,interval,by_day_of_week,by_day_index,by_day_day,by_day_of_month,until_date,until_recurrence_amount,deviation,exception,
,1,1,4,1,1,0,0,0,0,,0,0,0,
,2,1,5,1,2,0,0,0,0,2019-07-25 00:00:00,0,0,0,
,3,1,6,1,3,0,0,0,0,,23,0,0,
,4,1,7,2,1,36,0,0,0,,0,0,0,
,5,1,8,3,1,0,2,7,0,,0,0,0,
,6,1,9,3,1,0,2,7,0,,0,0,0,
,7,1,9,3,1,0,-3,6,0,,0,0,0,
,8,1,9,3,1,0,5,2,0,,0,0,0,
,9,1,10,3,1,0,0,0,1028,,0,0,0,
,10,1,11,1,1,0,0,0,0,,0,2,0,
,11,1,12,1,1,0,0,0,0,,0,0,2,
,12,1,13,1,1,0,0,0,0,,0,1,1,
,13,1,14,1,1,0,0,0,0,,0,0,0,
,14,1,15,1,1,0,0,0,0,,0,0,0,
,,,,,,,,,,,,,,
,,,,,,,,,,,,,,
tx_calendar_calendar,,,,,,,,,,,,,,
,uid,pid,title,activate_free_and_busy,free_and_busy_users_and_groups,type,ical_url,ical_file,refresh_interval,md5,scheduler_id,tx_cal_calendar_uid,,
,1,1,Regular calendar,0,0,calendar,,,0,,0,1,,
,2,2,Calendar on a non existing page,0,0,calendar,,,0,,0,2,,
,,,,,,,,,,,,,,
tx_calendar_exception,,,,,,,,,,,,,,
,uid,pid,title,teaser,description,start,end,all_day,recurrence,tx_cal_exception_event_uid,,,,
,1,1,Exception,,,2019-07-16 00:00:00,2019-07-16 23:59:59,0,0,201,,,,
,2,5,Exception on a non existing page,,,2019-07-16 00:00:00,2019-07-16 23:59:59,0,0,202,,,,
,3,1,Exception 1 for group,,,2019-07-16 00:00:00,2019-07-16 23:59:59,0,0,203,,,,
,4,1,Exception 2 for group,,,2019-07-16 00:00:00,2019-07-16 23:59:59,0,0,204,,,,
,,,,,,,,,,,,,,
tx_calendar_deviation,,,,,,,,,,,,,,
,uid,pid,title,teaser,description,start,end,all_day,recurrence,deviated_event_start,parent_recurrence_uid,tx_cal_event_deviation_uid,,
,1,1,Deviation,,,2019-07-16 10:23:01,2019-07-16 15:42:01,0,0,,10,101,,
,2,4,Deviation on a non existing page,,,2019-07-16 10:23:01,2019-07-16 15:42:01,0,0,,10,102,,
,3,1,Deviation,,,2019-07-16 10:23:01,2019-07-16 15:42:01,0,0,,12,103,,
,,,,,,,,,,,,,,
tx_calendar_exception_group,,,,,,,,,,,,,,
,uid,pid,title,exception,tx_cal_exception_event_group_uid,,,,,,,,,
,1,1,Exception group,2,301,,,,,,,,,
,2,6,Exception group on a non existing page,2,302,,,,,,,,,
,,,,,,,,,,,,,,
tx_calendar_mm_relation,,,,,,,,,,,,,,
,uid_local,uid_foreign,table_local,tablenames,sorting,,,,,,,,,
,11,1,tx_calendar_recurrence,tx_calendar_exception,1,,,,,,,,,
,11,2,tx_calendar_recurrence,tx_calendar_exception,2,,,,,,,,,
,12,1,tx_calendar_recurrence,tx_calendar_exception,1,,,,,,,,,
,1,3,tx_calendar_exception_group,tx_calendar_exception,1,,,,,,,,,
,1,4,tx_calendar_exception_group,tx_calendar_exception,2,,,,,,,,,
,2,3,tx_calendar_exception_group,tx_calendar_exception,1,,,,,,,,,
,2,4,tx_calendar_exception_group,tx_calendar_exception,2,,,,,,,,,
